Introduction to R and RStudio
…
To do so, once again, you can

click on the green arrow at the top of the code chunk in the R Markdown (Rmd) file, or

put your cursor on this line, and hit the Run button on the upper right corner of the pane, or

type the code in the console.

This command instructs R to load some data. The Arbuthnot baptism counts for boys and girls. You should see that the workspace area in the upper righthand corner of the RStudio window now lists a data set called arbuthnot that has 82 observations on 3 variables. As you interact with R, you will create a series of objects. Sometimes you load them as we have done here, and sometimes you create them yourself as the byproduct of a computation or some analysis you have performed.

The Arbuthnot data set refers to Dr.John Arbuthnot, an 18th century physician, writer, and mathematician. He was interested in the ratio of newborn boys to newborn girls, so he gathered the baptism records for children born in London for every year from 1629 to 1710. We can take a look at the data by typing its name into the console.

arbuthnot

## # A tibble: 82 x 3
##     year  boys girls
##    <int> <int> <int>
##  1  1629  5218  4683
##  2  1630  4858  4457
##  3  1631  4422  4102
##  4  1632  4994  4590
##  5  1633  5158  4839
##  6  1634  5035  4820
##  7  1635  5106  4928
##  8  1636  4917  4605
##  9  1637  4703  4457
## 10  1638  5359  4952
## #  with 72 more rows
…
What in the world is going on here? The %>% operator is called the piping operator. Basically, it takes the output of the current line and pipes it into the following line of code.

A note on piping:  Note that we can read these three lines of code as the following:

Take the arbuthnot dataset and pipe it into the mutate function. Using this mutate a new variable called total that is the sum of the variables called boys and girls. Then assign this new resulting dataset to the object called arbuthnot, i.e.overwrite the old arbuthnot dataset with the new one containing the new variable.

This is essentially equivalent to going through each row and adding up the boys and girls counts for that year and recording that value in a new column called total.

Where is the new variable?  When you make changes to variables in your dataset, click on the name of the dataset again to update it in the data viewer.

``

arbuthnot

## # A tibble: 82 x 4
##     year  boys girls total
##    <int> <int> <int> <int>
##  1  1629  5218  4683  9901
##  2  1630  4858  4457  9315
##  3  1631  4422  4102  8524
##  4  1632  4994  4590  9584
##  5  1633  5158  4839  9997
##  6  1634  5035  4820  9855
##  7  1635  5106  4928 10034
##  8  1636  4917  4605  9522
##  9  1637  4703  4457  9160
## 10  1638  5359  4952 10311
## #  with 72 more rows
…
Finally, in addition to simple mathematical operators like subtraction and division, you can ask R to make comparisons like greater than, >, less than, <, and equality, ==. For example, we can ask if boys outnumber girls in each year with the expression

arbuthnot <- arbuthnot %>%
  mutate(more_boys = boys > girls)

This command add a new variable to the arbuthnot data frame containing the values of either TRUE if that year had more boys than girls, or FALSE if that year did not (the answer may surprise you). This variable contains different kind of data than we have considered so far. All other columns in the arbuthnot data frame have values are numerical (the year, the number of boys and girls). Here, weve asked R to create logical data, data where the values are either TRUE or FALSE. In general, data analysis will involve many different kinds of data types, and one reason for using R is that it is able to represent and compute with many of them.

Dataset 2: Present birth records

In the previous few pages, you recreated some of the displays and preliminary analysis of Arbuthnots baptism data. Next you will do a similar analysis, but for present day birth records in the United States. Load up the present day data with the following command.

data(present)
present

## # A tibble: 74 x 3
##     year    boys   girls
##    <dbl>   <dbl>   <dbl>
##  1  1940 1211684 1148715
##  2  1941 1289734 1223693
##  3  1942 1444365 1364631
##  4  1943 1508959 1427901
##  5  1944 1435301 1359499
##  6  1945 1404587 1330869
##  7  1946 1691220 1597452
##  8  1947 1899876 1800064
##  9  1948 1813852 1721216
## 10  1949 1826352 1733177
## #  with 64 more rows
…
1957

1961

1991

2007

# type your code for Question 8 here
# sample code is provided below, edit as necessary, uncomment, and then Knit
present %>%
 mutate(total = boys + girls) %>%
 arrange(desc(total))

## # A tibble: 74 x 7
##     year    boys   girls   total prob_boys more_boys prob_boy_girl
##    <dbl>   <dbl>   <dbl>   <dbl>     <dbl> <lgl>             <dbl>
##  1  2007 2208071 2108162 4316233     0.512 TRUE               1.05
##  2  1961 2186274 2082052 4268326     0.512 TRUE               1.05
##  3  2006 2184237 2081318 4265555     0.512 TRUE               1.05
##  4  1960 2179708 2078142 4257850     0.512 TRUE               1.05
##  5  1957 2179960 2074824 4254784     0.512 TRUE               1.05
##  6  2008 2173625 2074069 4247694     0.512 TRUE               1.05
##  7  1959 2173638 2071158 4244796     0.512 TRUE               1.05
##  8  1958 2152546 2051266 4203812     0.512 TRUE               1.05
##  9  1962 2132466 2034896 4167362     0.512 TRUE               1.05
## 10  1956 2133588 2029502 4163090     0.513 TRUE               1.05
## #  with 64 more rows
…
